5 Tracking data: Interpolate / speed filter | Marine Megafauna Conservation Toolkit
…
## [1] "STEP 3: Review the model fit"

"~~~~~~~~~~~~~~~~~~~~~~~"

## [1] "~~~~~~~~~~~~~~~~~~~~~~~"

## review the model summary
## See: https://ianjonsen.github.io/aniMotum/articles/Overview.html
"Check that converged and phHess were True. NOTE: I'm not sure what it means if they are false"

## [1] "Check that converged and phHess were True. NOTE: I'm not sure what it means if they are false"

fit_alltrack

## # A tibble: 296 × 5
##    id                 ssm          converged pdHess pmodel
##    <chr>              <named list> <lgl>     <lgl>  <chr> 
##  1 19_Tag17600_Z-9_02 <ssm [15]>   TRUE      TRUE   crw   
##  2 19_Tag17600_Z-9_03 <ssm [15]>   TRUE      TRUE   crw   
##  3 19_Tag17600_Z-9_04 <ssm [15]>   TRUE      TRUE   crw   
##  4 19_Tag17600_Z-9_05 <ssm [15]>   TRUE      TRUE   crw   
##  5 19_Tag17604_Z-7_01 <ssm [15]>   TRUE      TRUE   crw   
##  6 19_Tag17604_Z-7_02 <ssm [15]>   TRUE      TRUE   crw   
##  7 19_Tag17604_Z-7_03 <ssm [15]>   TRUE      TRUE   crw   
##  8 19_Tag17604_Z-7_04 <ssm [15]>   TRUE      TRUE   crw   
##  9 19_Tag17604_Z-7_05 <ssm [15]>   TRUE      TRUE   crw   
## 10 19_Tag17604_Z-7_07 <ssm [15]>   TRUE      TRUE   crw   
## # … with 286 more rows
…
